{
  "page": 1,
  "total_results": 7145,
  "total_pages": 358,
  "results": [
    {
      "vote_count": 666,
      "id": 19404,
      "video": false,
      "vote_average": 9.1,
      "title": "Dilwale Dulhania Le Jayenge",
      "popularity": 30.469554,
      "poster_path": "/2gvbZMtV1Zsl7FedJa5ysbpBx2G.jpg",
      "original_language": "hi",
      "original_title": "Dilwale Dulhania Le Jayenge",
      "genre_ids": [
        35,
        18,
        10749
      ],
      "backdrop_path": "/nl79FQ8xWZkhL3rDr1v2RFFR6J0.jpg",
      "adult": false,
      "overview": "Raj is a rich, carefree, happy-go-lucky second generation NRI. Simran is the daughter of Chaudhary Baldev Singh, who in spite of being an NRI is very strict about adherence to Indian values. Simran has left for India to be married to her childhood fiancé. Raj leaves for India with a mission at his hands, to claim his lady love under the noses of her whole family. Thus begins a saga.",
      "release_date": "1995-10-20"
    },
    {
      "vote_count": 8341,
      "id": 278,
      "video": false,
      "vote_average": 8.5,
      "title": "The Shawshank Redemption",
      "popularity": 49.64781,
      "poster_path": "/9O7gLzmreU0nGkIB6K3BsJbzvNv.jpg",
      "original_language": "en",
      "original_title": "The Shawshank Redemption",
      "genre_ids": [
        18,
        80
      ],
      "backdrop_path": "/xBKGJQsAIeweesB79KC89FpBrVr.jpg",
      "adult": false,
      "overview": "Framed in the 1940s for the double murder of his wife and her lover, upstanding banker Andy Dufresne begins a new life at the Shawshank prison, where he puts his accounting skills to work for an amoral warden. During his long stretch in prison, Dufresne comes to be admired by the other inmates -- including an older prisoner named Red -- for his integrity and unquenchable sense of hope.",
      "release_date": "1994-09-23"
    },
    {
      "vote_count": 1029,
      "id": 372058,
      "video": false,
      "vote_average": 8.5,
      "title": "Your Name.",
      "popularity": 42.016606,
      "poster_path": "/xq1Ugd62d23K2knRUx6xxuALTZB.jpg",
      "original_language": "ja",
      "original_title": "君の名は。",
      "genre_ids": [
        10749,
        16,
        18
      ],
      "backdrop_path": "/mMtUybQ6hL24FXo0F3Z4j2KG7kZ.jpg",
      "adult": false,
      "overview": "High schoolers Mitsuha and Taki are complete strangers living separate lives. But one night, they suddenly switch places. Mitsuha wakes up in Taki’s body, and he in hers. This bizarre occurrence continues to happen randomly, and the two must adjust their lives around each other.",
      "release_date": "2016-08-26"
    },
    {
      "vote_count": 6000,
      "id": 238,
      "video": false,
      "vote_average": 8.5,
      "title": "The Godfather",
      "popularity": 42.46639,
      "poster_path": "/rPdtLWNsZmAtoZl9PK7S2wE3qiS.jpg",
      "original_language": "en",
      "original_title": "The Godfather",
      "genre_ids": [
        18,
        80
      ],
      "backdrop_path": "/6xKCYgH16UuwEGAyroLU6p8HLIn.jpg",
      "adult": false,
      "overview": "Spanning the years 1945 to 1955, a chronicle of the fictional Italian-American Corleone crime family. When organized crime family patriarch, Vito Corleone barely survives an attempt on his life, his youngest son, Michael steps in to take care of the would-be killers, launching a campaign of bloody revenge.",
      "release_date": "1972-03-14"
    },
    {
      "vote_count": 4427,
      "id": 424,
      "video": false,
      "vote_average": 8.3,
      "title": "Schindler's List",
      "popularity": 38.959768,
      "poster_path": "/yPisjyLweCl1tbgwgtzBCNCBle.jpg",
      "original_language": "en",
      "original_title": "Schindler's List",
      "genre_ids": [
        18,
        36,
        10752
      ],
      "backdrop_path": "/rIpSszng8P0DL0TimSzZbpfnvh1.jpg",
      "adult": false,
      "overview": "The true story of how businessman Oskar Schindler saved over a thousand Jewish lives from the Nazis while they worked as slaves in his factory during World War II.",
      "release_date": "1993-11-29"
    },
    {
      "vote_count": 3973,
      "id": 129,
      "video": false,
      "vote_average": 8.3,
      "title": "Spirited Away",
      "popularity": 36.55833,
      "poster_path": "/dL11DBPcRhWWnJcFXl9A07MrqTI.jpg",
      "original_language": "ja",
      "original_title": "千と千尋の神隠し",
      "genre_ids": [
        16,
        10751,
        14
      ],
      "backdrop_path": "/mnpRKVSXBX6jb56nabvmGKA0Wig.jpg",
      "adult": false,
      "overview": "A young girl, Chihiro, becomes trapped in a strange new world of spirits. When her parents undergo a mysterious transformation, she must call upon the courage she never knew she had to free her family.",
      "release_date": "2001-07-20"
    },
    {
      "vote_count": 4338,
      "id": 244786,
      "video": false,
      "vote_average": 8.3,
      "title": "Whiplash",
      "popularity": 59.857212,
      "poster_path": "/lIv1QinFqz4dlp5U4lQ6HaiskOZ.jpg",
      "original_language": "en",
      "original_title": "Whiplash",
      "genre_ids": [
        18
      ],
      "backdrop_path": "/6bbZ6XyvgfjhQwbplnUh1LSj1ky.jpg",
      "adult": false,
      "overview": "Under the direction of a ruthless instructor, a talented young drummer begins to pursue perfection at any cost, even his humanity.",
      "release_date": "2014-10-10"
    },
    {
      "vote_count": 3419,
      "id": 240,
      "video": false,
      "vote_average": 8.3,
      "title": "The Godfather: Part II",
      "popularity": 36.694396,
      "poster_path": "/bVq65huQ8vHDd1a4Z37QtuyEvpA.jpg",
      "original_language": "en",
      "original_title": "The Godfather: Part II",
      "genre_ids": [
        18,
        80
      ],
      "backdrop_path": "/gLbBRyS7MBrmVUNce91Hmx9vzqI.jpg",
      "adult": false,
      "overview": "In the continuing saga of the Corleone crime family, a young Vito Corleone grows up in Sicily and in 1910s New York. In the 1950s, Michael Corleone attempts to expand the family business into Las Vegas, Hollywood and Cuba.",
      "release_date": "1974-12-20"
    },
    {
      "vote_count": 194,
      "id": 374430,
      "video": false,
      "vote_average": 8.3,
      "title": "Black Mirror: White Christmas",
      "popularity": 24.776591,
      "poster_path": "/he609rnU3tiwBjRklKNa4n2jQSd.jpg",
      "original_language": "en",
      "original_title": "Black Mirror: White Christmas",
      "genre_ids": [
        18,
        27,
        9648,
        878,
        53,
        10770
      ],
      "backdrop_path": "/rMCew7St2vy9iV3QOPzx15sAkFJ.jpg",
      "adult": false,
      "overview": "This feature-length special consists of three interwoven stories. In a mysterious and remote snowy outpost, Matt and Potter share a Christmas meal, swapping creepy tales of their earlier lives in the outside world. Matt is a charismatic American trying to bring the reserved, secretive Potter out of his shell. But are both men who they appear to be? A woman gets thrust into a nightmarish world of 'smart' gadgetry. Plus a look at what would happen if you could 'block' people in real life.",
      "release_date": "2014-12-16"
    },
    {
      "vote_count": 9597,
      "id": 550,
      "video": false,
      "vote_average": 8.3,
      "title": "Fight Club",
      "popularity": 53.43144,
      "poster_path": "/adw6Lq9FiC9zjYEpOqfq03ituwp.jpg",
      "original_language": "en",
      "original_title": "Fight Club",
      "genre_ids": [
        18
      ],
      "backdrop_path": "/8uO0gUM8aNqYLs1OsTBQiXu0fEv.jpg",
      "adult": false,
      "overview": "A ticking-time-bomb insomniac and a slippery soap salesman channel primal male aggression into a shocking new form of therapy. Their concept catches on, with underground \"fight clubs\" forming in every town, until an eccentric gets in the way and ignites an out-of-control spiral toward oblivion.",
      "release_date": "1999-10-15"
    },
    {
      "vote_count": 133,
      "id": 455661,
      "video": false,
      "vote_average": 8.3,
      "title": "In a Heartbeat",
      "popularity": 24.729068,
      "poster_path": "/wJUJROdLOtOzMixkjkx1aaZGSLl.jpg",
      "original_language": "en",
      "original_title": "In a Heartbeat",
      "genre_ids": [
        10751,
        16,
        10749,
        35
      ],
      "backdrop_path": "/4datX8btikWEikf7esqEe6fhw.jpg",
      "adult": false,
      "overview": "A closeted boy runs the risk of being outed by his own heart after it pops out of his chest to chase down the boy of his dreams.",
      "release_date": "2017-06-01"
    },
    {
      "vote_count": 8581,
      "id": 680,
      "video": false,
      "vote_average": 8.3,
      "title": "Pulp Fiction",
      "popularity": 146.243535,
      "poster_path": "/dM2w364MScsjFf8pfMbaWUcWrR.jpg",
      "original_language": "en",
      "original_title": "Pulp Fiction",
      "genre_ids": [
        53,
        80
      ],
      "backdrop_path": "/9rZg1J6vMQoDVSgRyWcpJa8IAGy.jpg",
      "adult": false,
      "overview": "A burger-loving hit man, his philosophical partner, a drug-addled gangster's moll and a washed-up boxer converge in this sprawling, comedic crime caper. Their adventures unfurl in three stories that ingeniously trip back and forth in time.",
      "release_date": "1994-09-10"
    },
    {
      "vote_count": 3635,
      "id": 637,
      "video": false,
      "vote_average": 8.3,
      "title": "Life Is Beautiful",
      "popularity": 37.210246,
      "poster_path": "/f7DImXDebOs148U4uPjI61iDvaK.jpg",
      "original_language": "it",
      "original_title": "La vita è bella",
      "genre_ids": [
        35,
        18
      ],
      "backdrop_path": "/bORe0eI72D874TMawOOFvqWS6Xe.jpg",
      "adult": false,
      "overview": "A touching story of an Italian book seller of Jewish ancestry who lives in his own little fairy tale. His creative and happy life would come to an abrupt halt when his entire family is deported to a concentration camp during World War II. While locked up he tries to convince his son that the whole thing is just a game.",
      "release_date": "1997-12-20"
    },
    {
      "vote_count": 12243,
      "id": 155,
      "video": false,
      "vote_average": 8.3,
      "title": "The Dark Knight",
      "popularity": 98.546305,
      "poster_path": "/1hRoyzDtpgMU7Dz4JF22RANzQO7.jpg",
      "original_language": "en",
      "original_title": "The Dark Knight",
      "genre_ids": [
        18,
        28,
        80,
        53
      ],
      "backdrop_path": "/hqkIcbrOHL86UncnHIsHVcVmzue.jpg",
      "adult": false,
      "overview": "Batman raises the stakes in his war on crime. With the help of Lt. Jim Gordon and District Attorney Harvey Dent, Batman sets out to dismantle the remaining criminal organizations that plague the streets. The partnership proves to be effective, but they soon find themselves prey to a reign of chaos unleashed by a rising criminal mastermind known to the terrified citizens of Gotham as the Joker.",
      "release_date": "2008-07-16"
    },
    {
      "vote_count": 2378,
      "id": 539,
      "video": false,
      "vote_average": 8.2,
      "title": "Psycho",
      "popularity": 35.224946,
      "poster_path": "/81d8oyEFgj7FlxJqSDXWr8JH8kV.jpg",
      "original_language": "en",
      "original_title": "Psycho",
      "genre_ids": [
        18,
        27,
        53
      ],
      "backdrop_path": "/3md49VBCeqY6MSNyAVY6d5eC6bA.jpg",
      "adult": false,
      "overview": "When larcenous real estate clerk Marion Crane goes on the lam with a wad of cash and hopes of starting a new life, she ends up at the notorious Bates Motel, where manager Norman Bates cares for his housebound mother. The place seems quirky, but fine… until Marion decides to take a shower.",
      "release_date": "1960-06-16"
    },
    {
      "vote_count": 1101,
      "id": 311,
      "video": false,
      "vote_average": 8.2,
      "title": "Once Upon a Time in America",
      "popularity": 33.677428,
      "poster_path": "/fqP3Q7DWMFqW7mh11hWXbNwN9rz.jpg",
      "original_language": "en",
      "original_title": "Once Upon a Time in America",
      "genre_ids": [
        18,
        80
      ],
      "backdrop_path": "/vnT6HzjLSDrAweHn9xWykb8Ii6T.jpg",
      "adult": false,
      "overview": "A former Prohibition-era Jewish gangster returns to the Lower East Side of Manhattan over thirty years later, where he once again must confront the ghosts and regrets of his old life.",
      "release_date": "1984-02-16"
    },
    {
      "vote_count": 2983,
      "id": 510,
      "video": false,
      "vote_average": 8.2,
      "title": "One Flew Over the Cuckoo's Nest",
      "popularity": 35.779433,
      "poster_path": "/2Sns5oMb356JNdBHgBETjIpRYy9.jpg",
      "original_language": "en",
      "original_title": "One Flew Over the Cuckoo's Nest",
      "genre_ids": [
        18
      ],
      "backdrop_path": "/4E7YQcwui0PfNXguf4V2X8YocPC.jpg",
      "adult": false,
      "overview": "While serving time for insanity at a state mental hospital, implacable rabble-rouser, Randle Patrick McMurphy inspires his fellow patients to rebel against the authoritarian rule of head nurse, Mildred Ratched.",
      "release_date": "1975-11-18"
    },
    {
      "vote_count": 8073,
      "id": 13,
      "video": false,
      "vote_average": 8.2,
      "title": "Forrest Gump",
      "popularity": 43.697079,
      "poster_path": "/yE5d3BUhE8hCnkMUJOo1QDoOGNz.jpg",
      "original_language": "en",
      "original_title": "Forrest Gump",
      "genre_ids": [
        35,
        18,
        10749
      ],
      "backdrop_path": "/d5ud5KadGTrY6UQzzNIuK6L0Xyo.jpg",
      "adult": false,
      "overview": "A man with a low IQ has accomplished great things in his life and been present during significant historic events - in each case, far exceeding what anyone imagined he could do. Yet, despite all the things he has attained, his one true love eludes him. 'Forrest Gump' is the story of a man who rose above his challenges, and who proved that determination, courage, and love are more important than ability.",
      "release_date": "1994-07-06"
    },
    {
      "vote_count": 2112,
      "id": 389,
      "video": false,
      "vote_average": 8.2,
      "title": "12 Angry Men",
      "popularity": 24.105543,
      "poster_path": "/3W0v956XxSG5xgm7LB6qu8ExYJ2.jpg",
      "original_language": "en",
      "original_title": "12 Angry Men",
      "genre_ids": [
        18
      ],
      "backdrop_path": "/lH2Ga8OzjU1XlxJ73shOlPx6cRw.jpg",
      "adult": false,
      "overview": "The defense and the prosecution have rested and the jury is filing into the jury room to decide if a young Spanish-American is guilty or innocent of murdering his father. What begins as an open and shut case soon becomes a mini-drama of each of the jurors' prejudices and preconceptions about the trial, the accused, and each other.",
      "release_date": "1957-03-25"
    },
    {
      "vote_count": 3205,
      "id": 769,
      "video": false,
      "vote_average": 8.2,
      "title": "GoodFellas",
      "popularity": 22.593729,
      "poster_path": "/hAPeXBdGDGmXRPj4OZZ0poH65Iu.jpg",
      "original_language": "en",
      "original_title": "GoodFellas",
      "genre_ids": [
        18,
        80
      ],
      "backdrop_path": "/xDEOxA01480uLTWuvQCw61VmDBt.jpg",
      "adult": false,
      "overview": "The true story of Henry Hill, a half-Irish, half-Sicilian Brooklyn kid who is adopted by neighbourhood gangsters at an early age and climbs the ranks of a Mafia family under the guidance of Jimmy Conway.",
      "release_date": "1990-09-12"
    }
	 {
      "vote_count": 2039,
      "id": 346364,
      "video": false,
      "vote_average": 7.4,
      "title": "It",
      "popularity": 745.88068,
      "poster_path": "/9E2y5Q7WlCVNEhP5GiVTjhEhx1o.jpg",
      "original_language": "en",
      "original_title": "It",
      "genre_ids": [
        12,
        18,
        27
      ],
      "backdrop_path": "/tcheoA2nPATCm2vvXw2hVQoaEFD.jpg",
      "adult": false,
      "overview": "In a small town in Maine, seven children known as The Losers Club come face to face with life problems, bullies and a monster that takes the shape of a clown called Pennywise.",
      "release_date": "2017-09-05"
    },
    {
      "vote_count": 636,
      "id": 335984,
      "video": false,
      "vote_average": 7.7,
      "title": "Blade Runner 2049",
      "popularity": 319.702307,
      "poster_path": "/aMpyrCizvSdc0UIMblJ1srVgAEF.jpg",
      "original_language": "en",
      "original_title": "Blade Runner 2049",
      "genre_ids": [
        28,
        9648,
        878,
        53
      ],
      "backdrop_path": "/mVr0UiqyltcfqxbAUcLl9zWL8ah.jpg",
      "adult": false,
      "overview": "Thirty years after the events of the first film, a new blade runner, LAPD Officer K, unearths a long-buried secret that has the potential to plunge what's left of society into chaos. K's discovery leads him on a quest to find Rick Deckard, a former LAPD blade runner who has been missing for 30 years.",
      "release_date": "2017-10-04"
    },
    {
      "vote_count": 1696,
      "id": 281338,
      "video": false,
      "vote_average": 6.7,
      "title": "War for the Planet of the Apes",
      "popularity": 237.156665,
      "poster_path": "/3vYhLLxrTtZLysXtIWktmd57Snv.jpg",
      "original_language": "en",
      "original_title": "War for the Planet of the Apes",
      "genre_ids": [
        18,
        878,
        10752
      ],
      "backdrop_path": "/ulMscezy9YX0bhknvJbZoUgQxO5.jpg",
      "adult": false,
      "overview": "Caesar and his apes are forced into a deadly conflict with an army of humans led by a ruthless Colonel. After the apes suffer unimaginable losses, Caesar wrestles with his darker instincts and begins his own mythic quest to avenge his kind. As the journey finally brings them face to face, Caesar and the Colonel are pitted against each other in an epic battle that will determine the fate of both their species and the future of the planet.",
      "release_date": "2017-07-11"
    },
    {
      "vote_count": 571,
      "id": 343668,
      "video": false,
      "vote_average": 7.4,
      "title": "Kingsman: The Golden Circle",
      "popularity": 195.970713,
      "poster_path": "/pKESfn2Pdy0b7drvZHQb7UzgqoY.jpg",
      "original_language": "en",
      "original_title": "Kingsman: The Golden Circle",
      "genre_ids": [
        28,
        12,
        35
      ],
      "backdrop_path": "/uExPmkOHJySrbJyJDJylHDqaT58.jpg",
      "adult": false,
      "overview": "When an attack on the Kingsman headquarters takes place and a new villain rises, Eggsy and Merlin are forced to work together with the American agency known as the Statesman to save the world.",
      "release_date": "2017-09-20"
    },
    {
      "vote_count": 2101,
      "id": 339403,
      "video": false,
      "vote_average": 7.2,
      "title": "Baby Driver",
      "popularity": 177.845219,
      "poster_path": "/dN9LbVNNZFITwfaRjl4tmwGWkRg.jpg",
      "original_language": "en",
      "original_title": "Baby Driver",
      "genre_ids": [
        28,
        80
      ],
      "backdrop_path": "/goCvLSUFz0p7k8R10Hv4CVh3EQv.jpg",
      "adult": false,
      "overview": "After being coerced into working for a crime boss, a young getaway driver finds himself taking part in a heist doomed to fail.",
      "release_date": "2017-06-28"
    }
  ]
}
}